Generate the data specifying a flametree — flametree_grow • flametree
…
These functions are documented in their own help files. To give an example,
the default behaviour of flametree_grow() adds a random horizontal
displacement to each tree to give the impression of multiple trees growing
side by side. To suppress this horizontal displacement, set
shift_x = spark_nothing().

    Examples

# flametree data structure with default parameters
flametree_grow()
#> # A tibble: 381 × 12
#>    coord_x coord_y id_tree id_time id_path id_leaf id_pathtree id_step seg_deg
#>      <dbl>   <dbl>   <int>   <int>   <int> <lgl>   <chr>         <int>   <dbl>
#>  1   -1.11    0          1       1       1 FALSE   1_1               0      90
#>  2   -1.11    0.5        1       1       1 FALSE   1_1               1      90
#>  3   -1.11    1          1       1       1 FALSE   1_1               2      90
#>  4   -1.11    1          1       2       2 FALSE   1_2               0      80
#>  5   -1.11    1.3        1       2       2 FALSE   1_2               1      80
#>  6   -1.00    1.59       1       2       2 FALSE   1_2               2      80
#>  7   -1.11    1          1       2       3 FALSE   1_3               0     100
#>  8   -1.11    1.45       1       2       3 FALSE   1_3               1     100
#>  9   -1.26    1.89       1       2       3 FALSE   1_3               2     100
#> 10   -1.00    1.59       1       3       4 FALSE   1_4               0      90
#> # … with 371 more rows, and 3 more variables: seg_len <dbl>, seg_col <dbl>,
#> #   seg_wid <dbl>

# setting time = 10 runs the generative process
# longer resulting in a table with more rows
flametree_grow(time = 10)
#> # A tibble: 6,141 × 12
#>    coord_x coord_y id_tree id_time id_path id_leaf id_pathtree id_step seg_deg
#>      <dbl>   <dbl>   <int>   <int>   <int> <lgl>   <chr>         <int>   <dbl>
#>  1    1.22    0          1       1       1 FALSE   1_1               0      90
#>  2    1.22    0.5        1       1       1 FALSE   1_1               1      90
#>  3    1.22    1          1       1       1 FALSE   1_1               2      90
#>  4    1.22    1          1       2       2 FALSE   1_2               0      80
#>  5    1.22    1.3        1       2       2 FALSE   1_2               1      80
#>  6    1.33    1.59       1       2       2 FALSE   1_2               2      80
#>  7    1.22    1          1       2       3 FALSE   1_3               0     100
#>  8    1.22    1.45       1       2       3 FALSE   1_3               1     100
#>  9    1.07    1.89       1       2       3 FALSE   1_3               2     100
#> 10    1.33    1.59       1       3       4 FALSE   1_4               0      90
#> # … with 6,131 more rows, and 3 more variables: seg_len <dbl>, seg_col <dbl>,
#> #   seg_wid <dbl>

# default behaviour is to randomly displace trees
# by random horizontal perturbation: to switch this
# off use the spark_nothing() function
flametree_grow(shift_x = spark_nothing())
#> # A tibble: 381 × 12
#>      coord_x coord_y id_tree id_time id_path id_leaf id_pathtree id_step seg_deg
#>        <dbl>   <dbl>   <int>   <int>   <int> <lgl>   <chr>         <int>   <dbl>
#>  1  0           0          1       1       1 FALSE   1_1               0      90
#>  2  0           0.5        1       1       1 FALSE   1_1               1      90
#>  3  0           1          1       1       1 FALSE   1_1               2      90
#>  4  0           1          1       2       2 FALSE   1_2               0      80
#>  5  1.84e-17    1.3        1       2       2 FALSE   1_2               1      80
#>  6  1.04e- 1    1.59       1       2       2 FALSE   1_2               2      80
#>  7  0           1          1       2       3 FALSE   1_3               0     100
#>  8  2.76e-17    1.45       1       2       3 FALSE   1_3               1     100
#>  9 -1.56e- 1    1.89       1       2       3 FALSE   1_3               2     100
#> 10  1.04e- 1    1.59       1       3       4 FALSE   1_4               0      90
#> # … with 371 more rows, and 3 more variables: seg_len <dbl>, seg_col <dbl>,
#> #   seg_wid <dbl>
…
