Getting started • flametree
…
      Using spark functions

      Getting started

      Source: vignettes/articles/getting-started.Rmd
      getting-started.Rmd

Flametree provides a system for making generative art in R, written with two goals in mind. First, and perhaps foremost, art is inherently enjoyable and generative artists working in R need packages no less than any other R users. Second, the system is designed to be useful in the classroom: getting students to make artwork in class is an enjoyable exercise and flametree can be used as a method to introduce some key R concepts in a fun way. This article will help you get started with the package.

library(flametree)

The flametree system has two main components: the flametree_grow() function generates a tidy tibble that specifies a suitable data structure, and the flametree_plot() function takes this tibble and creates plots using ggplot2. First we look at the data structure:

flametree_grow()
#> # A tibble: 381 x 12
#>    coord_x coord_y id_tree id_time id_path id_leaf id_pathtree id_step seg_deg
#>      <dbl>   <dbl>   <int>   <int>   <int> <lgl>   <chr>         <int>   <dbl>
#>  1   -1.11    0          1       1       1 FALSE   1_1               0      90
#>  2   -1.11    0.5        1       1       1 FALSE   1_1               1      90
#>  3   -1.11    1          1       1       1 FALSE   1_1               2      90
#>  4   -1.11    1          1       2       2 FALSE   1_2               0      80
#>  5   -1.11    1.3        1       2       2 FALSE   1_2               1      80
#>  6   -1.00    1.59       1       2       2 FALSE   1_2               2      80
#>  7   -1.11    1          1       2       3 FALSE   1_3               0     100
#>  8   -1.11    1.45       1       2       3 FALSE   1_3               1     100
#>  9   -1.26    1.89       1       2       3 FALSE   1_3               2     100
#> 10   -1.00    1.59       1       3       4 FALSE   1_4               0      90
#> # … with 371 more rows, and 3 more variables: seg_len <dbl>, seg_col <dbl>,
#> #   seg_wid <dbl>
…
